test_run_dir/Waveform_should_pass/Echo.vcd
$date
2024-05-07T03:48+0000
$end
$version
0.2
$end
$comment

$end
$timescale 1ns  $end
$scope module Echo $end
 $var wire 1 , io_rxd $end
 $var wire 1 / reset $end
 $var wire 1 2 rx $end
 $var wire 1 : tx $end
 $var wire 1 B clock $end
 $var wire 1 E io_txd $end
  $scope module tx $end
   $var wire 1 " io_channel_valid $end
   $var wire 1 % io_txd $end
   $var wire 1 1 clock $end
   $var wire 1 5 io_channel_ready $end
   $var wire 1 < reset $end
   $var wire 1 @ buf $end
   $var wire 8 D io_channel_data $end
   $var wire 1 F tx $end
    $scope module buf $end
     $var wire 1 # clock $end
     $var wire 8 & dataReg $end
     $var wire 1 ' stateReg $end
     $var wire 8 ) io_out_data $end
     $var wire 8 * io_in_data $end
     $var wire 1 7 io_in_valid $end
     $var wire 1 > reset $end
     $var wire 1 A io_out_valid $end
     $var wire 1 G io_out_ready $end
     $var wire 1 L io_in_ready $end
    $upscope $end
    $scope module tx $end
     $var wire 20 + cntReg $end
     $var wire 1 0 clock $end
     $var wire 1 6 io_channel_ready $end
     $var wire 10 = shift $end
     $var wire 4 ? bitsReg $end
     $var wire 11 C shiftReg $end
     $var wire 8 H io_channel_data $end
     $var wire 1 J reset $end
     $var wire 1 K io_txd $end
     $var wire 1 M io_channel_valid $end
    $upscope $end
  $upscope $end
  $scope module rx $end
   $var wire 1 ! rxReg_REG $end
   $var wire 1 $ valReg $end
   $var wire 4 ( bitsReg $end
   $var wire 1 - clock $end
   $var wire 1 . io_rxd $end
   $var wire 1 3 io_channel_valid $end
   $var wire 8 4 shiftReg $end
   $var wire 8 8 io_channel_data $end
   $var wire 1 9 reset $end
   $var wire 20 ; cntReg $end
   $var wire 1 I io_channel_ready $end
   $var wire 1 N rxReg $end
  $upscope $end
  $scope module tx.tx $end
  $upscope $end
  $scope module tx.buf $end
  $upscope $end
$upscope $end
$enddefinitions $end
$dumpvars
00
01
b00000000 *
02
03
b0000000000 =
05
b00000000 &
06
b00000000 )
b0000 ?
07
09
0:
0<
0>
b00000000000000000000 ;
0@
0A
0B
0E
0F
0G
b00000000 8
0I
0J
0K
b00000000 4
0L
0M
0N
b00000000000000000000 +
b00000000 H
b00000000 D
b0000 (
0!
0"
0#
0$
0%
0'
b00000000000 C
0,
0-
0.
0/
$end
#0
15
16
1G
19
1I
1J
1<
1L
1>
1/
#1
1!
1B
1#
b11111111111 C
b01000001 D
1%
1E
b01000001 *
1K
1-
1N
10
11
b01000001 4
b01000001 8
b1111111111 =
#6
0B
0#
1J
1,
0-
1.
1/
00
01
19
1<
1>
#11
10
11
1B
1#
1-
#16
00
01
0B
0#
0-
#21
10
11
1B
1#
1-
#26
00
01
0B
0#
0-
#31
10
11
1B
1#
1-
#36
00
01
0B
0#
0-
#41
10
11
1B
1#
1-
#46
00
01
0B
0#
0-
#51
10
11
1B
1#
1-
#56
00
01
0B
0#
0-
#61
10
11
1B
1#
1-
#66
00
01
0B
0#
0-
#71
10
11
1B
1#
1-
#76
00
01
0B
0#
0-
#81
10
11
1B
1#
1-
#86
00
01
0B
0#
0-
#91
10
11
1B
1#
1-
#96
00
01
0B
0#
0-
#101
10
11
1B
1#
1-
#106
00
01
0B
0#
0-
#111
10
11
1B
1#
1-
#116
00
01
0B
0#
0-
#121
10
11
1B
1#
1-
#126
00
01
0B
0#
0-
#131
10
11
1B
1#
1-
#136
00
01
0B
0#
0-
#141
10
11
1B
1#
1-
#146
00
01
0B
0#
0-
#151
10
11
1B
1#
1-
#156
00
01
0B
0#
0-
#161
10
11
1B
1#
1-
#166
00
01
0B
0#
0-
#171
10
11
1B
1#
1-
#176
00
01
0B
0#
0-
#181
10
11
1B
1#
1-
#186
00
01
0B
0#
0-
#191
10
11
1B
1#
1-
#196
00
01
0B
0#
0-
#201
10
11
1B
1#
1-
#206
00
01
0B
0#
0-
#211
10
11
1B
1#
1-
#216
00
01
0B
0#
0-
#221
10
11
1B
1#
1-
#226
00
01
0B
0#
0-
#231
10
11
1B
1#
1-
#236
00
01
0B
0#
0-
#241
10
11
1B
1#
1-
#246
00
01
0B
0#
0-
#251
10
11
1B
1#
1-
#256
00
01
0B
0#
0-
#261
10
11
1B
1#
1-
#266
00
01
0B
0#
0-
#271
10
11
1B
1#
1-
#276
00
01
0B
0#
0-
#281
10
11
1B
1#
1-
#286
00
01
0B
0#
0-
#291
10
11
1B
1#
1-
#296
00
01
0B
0#
0-
#301
10
11
1B
1#
1-
#306
00
01
0B
0#
0-
#311
10
11
1B
1#
1-
#316
00
01
0B
0#
0-
#321
10
11
1B
1#
1-
#326
00
01
0B
0#
0-
#331
10
11
1B
1#
1-
#336
00
01
0B
0#
0-
#341
10
11
1B
1#
1-
#346
00
01
0B
0#
0-
#351
10
11
1B
1#
1-
#356
00
01
0B
0#
0-
#361
10
11
1B
1#
1-
#366
00
01
0B
0#
0-
#371
10
11
1B
1#
1-
#376
00
01
0B
0#
0-
#381
10
11
1B
1#
1-
#386
00
01
0B
0#
0-
#391
10
11
1B
1#
1-
#396
00
01
0B
0#
0-
#401
10
11
1B
1#
1-
#406
00
01
0B
0#
0-
#411
10
11
1B
1#
1-
#416
00
01
0B
0#
0-
#421
10
11
1B
1#
1-
#426
00
01
0B
0#
0-
#431
10
11
1B
1#
1-
#436
00
01
0B
0#
0-
#441
10
11
1B
1#
1-
#446
00
01
0B
0#
0-
#451
10
11
1B
1#
1-
#456
00
01
0B
0#
0-
#461
10
11
1B
1#
1-
#466
00
01
0B
0#
0-
#471
10
11
1B
1#
1-
#476
00
01
0B
0#
0-
#481
10
11
1B
1#
1-
#486
00
01
0B
0#
0-
#491
10
11
1B
1#
1-
#496
00
01
0B
0#
0-
#501
10
11
1B
1#
1-
#506
00
01
0B
0#
0-
#511
10
11
1B
1#
1-
#516
00
01
0B
0#
0-
#521
10
11
1B
1#
1-
#526
00
01
0B
0#
0-
#531
10
11
1B
1#
1-
#536
00
01
0B
0#
0-
#541
10
11
1B
1#
1-
#546
00
01
0B
0#
0-
#551
10
11
1B
1#
1-
#556
00
01
0B
0#
0-
#561
10
11
1B
1#
1-
#566
00
01
0B
0#
0-
#571
10
11
1B
1#
1-
#576
00
01
0B
0#
0-
#581
10
11
1B
1#
1-
#586
00
01
0B
0#
0-
#591
10
11
1B
1#
1-
#596
00
01
0B
0#
0-
#601
10
11
1B
1#
1-
#606
00
01
0B
0#
0-
#611
10
11
1B
1#
1-
#616
00
01
0B
0#
0-
#621
10
11
1B
1#
1-
#626
00
01
0B
0#
0-
#631
10
11
1B
1#
1-
#636
00
01
0B
0#
0-
#641
10
11
1B
1#
1-
#646
00
01
0B
0#
0-
#651
10
11
1B
1#
1-
#656
00
01
0B
0#
0-
#661
10
11
1B
1#
1-
#666
00
01
0B
0#
0-
#671
10
11
1B
1#
1-
#676
00
01
0B
0#
0-
#681
10
11
1B
1#
1-
#686
00
01
0B
0#
0-
#691
10
11
1B
1#
1-
#696
00
01
0B
0#
0-
#701
10
11
1B
1#
1-
#706
00
01
0B
0#
0-
#711
10
11
1B
1#
1-
#716
00
01
0B
0#
0-
#721
10
11
1B
1#
1-
#726
00
01
0B
0#
0-
#731
10
11
1B
1#
1-
#736
00
01
0B
0#
0-
#741
10
11
1B
1#
1-
#746
00
01
0B
0#
0-
#751
10
11
1B
1#
1-
#756
00
01
0B
0#
0-
#761
10
11
1B
1#
1-
#766
00
01
0B
0#
0-
#771
10
11
1B
1#
1-
#776
00
01
0B
0#
0-
#781
10
11
1B
1#
1-
#786
00
01
0B
0#
0-
#791
10
11
1B
1#
1-
#796
00
01
0B
0#
0-
#801
10
11
1B
1#
1-
#806
00
01
0B
0#
0-
#811
10
11
1B
1#
1-
#816
00
01
0B
0#
0-
#821
10
11
1B
1#
1-
#826
00
01
0B
0#
0-
#831
10
11
1B
1#
1-
#836
00
01
0B
0#
0-
#841
10
11
1B
1#
1-
#846
00
01
0B
0#
0-
#851
10
11
1B
1#
1-
#856
00
01
0B
0#
0-
#861
10
11
1B
1#
1-
#866
00
01
0B
0#
0-
#871
10
11
1B
1#
1-
#876
00
01
0B
0#
0-
#881
10
11
1B
1#
1-
#886
00
01
0B
0#
0-
#891
10
11
1B
1#
1-
#896
00
01
0B
0#
0-
#901
10
11
1B
1#
1-
#906
00
01
0B
0#
0-
#911
10
11
1B
1#
1-
#916
00
01
0B
0#
0-
#921
10
11
1B
1#
1-
#926
00
01
0B
0#
0-
#931
10
11
1B
1#
1-
#936
00
01
0B
0#
0-
#941
10
11
1B
1#
1-
#946
00
01
0B
0#
0-
#951
10
11
1B
1#
1-
#956
00
01
0B
0#
0-
#961
10
11
1B
1#
1-
#966
00
01
0B
0#
0-
#971
10
11
1B
1#
1-
#976
00
01
0B
0#
0-
#981
10
11
1B
1#
1-
#986
00
01
0B
0#
0-
#991
10
11
1B
1#
1-
#996
00
01
0B
0#
0-
#1001
10
11
1B
1#
1-
#1006
00
01
0B
0#
09
0J
0<
0-
0>
0/
#1011
10
11
1B
1#
06
0G
b00000000000110110001 +
1-
#1016
00
01
0B
0#
0-
#1021
10
11
1B
1#
b00000000000110110000 +
1-
#1026
00
01
0B
0#
0-
#1031
10
11
1B
1#
b00000000000110101111 +
1-
#1036
00
01
0B
0#
0-
#1041
10
11
1B
1#
b00000000000110101110 +
1-
#1046
00
01
0B
0#
0-
#1051
10
11
1B
1#
b00000000000110101101 +
1-
#1056
00
01
0B
0#
0-
#1061
10
11
1B
1#
b00000000000110101100 +
1-
#1066
00
01
0B
0#
0-
#1071
10
11
1B
1#
b00000000000110101011 +
1-
#1076
00
01
0B
0#
0-
#1081
10
11
1B
1#
b00000000000110101010 +
1-
#1086
00
01
0B
0#
0-
#1091
10
11
1B
1#
b00000000000110101001 +
1-
#1096
00
01
0B
0#
0-
#1101
10
11
1B
1#
b00000000000110101000 +
1-
#1106
00
01
0B
0#
0-
#1111
10
11
1B
1#
b00000000000110100111 +
1-
#1116
00
01
0B
0#
0-
#1121
10
11
1B
1#
b00000000000110100110 +
1-
#1126
00
01
0B
0#
0-
#1131
10
11
1B
1#
b00000000000110100101 +
1-
#1136
00
01
0B
0#
0-
#1141
10
11
1B
1#
b00000000000110100100 +
1-
#1146
00
01
0B
0#
0-
#1151
10
11
1B
1#
b00000000000110100011 +
1-
#1156
00
01
0B
0#
0-
#1161
10
11
1B
1#
b00000000000110100010 +
1-
#1166
00
01
0B
0#
0-
#1171
10
11
1B
1#
b00000000000110100001 +
1-
#1176
00
01
0B
0#
0-
#1181
10
11
1B
1#
b00000000000110100000 +
1-
#1186
00
01
0B
0#
0-
#1191
10
11
1B
1#
b00000000000110011111 +
1-
#1196
00
01
0B
0#
0-
#1201
10
11
1B
1#
b00000000000110011110 +
1-
#1206
00
01
0B
0#
0-
#1211
10
11
1B
1#
b00000000000110011101 +
1-
#1216
00
01
0B
0#
0-
#1221
10
11
1B
1#
b00000000000110011100 +
1-
#1226
00
01
0B
0#
0-
#1231
10
11
1B
1#
b00000000000110011011 +
1-
#1236
00
01
0B
0#
0-
#1241
10
11
1B
1#
b00000000000110011010 +
1-
#1246
00
01
0B
0#
0-
#1251
10
11
1B
1#
b00000000000110011001 +
1-
#1256
00
01
0B
0#
0-
#1261
10
11
1B
1#
b00000000000110011000 +
1-
#1266
00
01
0B
0#
0-
#1271
10
11
1B
1#
b00000000000110010111 +
1-
#1276
00
01
0B
0#
0-
#1281
10
11
1B
1#
b00000000000110010110 +
1-
#1286
00
01
0B
0#
0-
#1291
10
11
1B
1#
b00000000000110010101 +
1-
#1296
00
01
0B
0#
0-
#1301
10
11
1B
1#
b00000000000110010100 +
1-
#1306
00
01
0B
0#
0-
#1311
10
11
1B
1#
b00000000000110010011 +
1-
#1316
00
01
0B
0#
0-
#1321
10
11
1B
1#
b00000000000110010010 +
1-
#1326
00
01
0B
0#
0-
#1331
10
11
1B
1#
b00000000000110010001 +
1-
#1336
00
01
0B
0#
0-
#1341
10
11
1B
1#
b00000000000110010000 +
1-
#1346
00
01
0B
0#
0-
#1351
10
11
1B
1#
b00000000000110001111 +
1-
#1356
00
01
0B
0#
0-
#1361
10
11
1B
1#
b00000000000110001110 +
1-
#1366
00
01
0B
0#
0-
#1371
10
11
1B
1#
b00000000000110001101 +
1-
#1376
00
01
0B
0#
0-
#1381
10
11
1B
1#
b00000000000110001100 +
1-
#1386
00
01
0B
0#
0-
#1391
10
11
1B
1#
b00000000000110001011 +
1-
#1396
00
01
0B
0#
0-
#1401
10
11
1B
1#
b00000000000110001010 +
1-
#1406
00
01
0B
0#
0-
#1411
10
11
1B
1#
b00000000000110001001 +
1-
#1416
00
01
0B
0#
0-
#1421
10
11
1B
1#
b00000000000110001000 +
1-
#1426
00
01
0B
0#
0-
#1431
10
11
1B
1#
b00000000000110000111 +
1-
#1436
00
01
0B
0#
0-
#1441
10
11
1B
1#
b00000000000110000110 +
1-
#1446
00
01
0B
0#
0-
#1451
10
11
1B
1#
b00000000000110000101 +
1-
#1456
00
01
0B
0#
0-
#1461
10
11
1B
1#
b00000000000110000100 +
1-
#1466
00
01
0B
0#
0-
#1471
10
11
1B
1#
b00000000000110000011 +
1-
#1476
00
01
0B
0#
0-
#1481
10
11
1B
1#
b00000000000110000010 +
1-
#1486
00
01
0B
0#
0-
#1491
10
11
1B
1#
b00000000000110000001 +
1-
#1496
00
01
0B
0#
0-
#1501
10
11
1B
1#
b00000000000110000000 +
1-
#1506
00
01
0B
0#
0-
#1511
10
11
1B
1#
b00000000000101111111 +
1-
#1516
00
01
0B
0#
0-
#1521
10
11
1B
1#
b00000000000101111110 +
1-
#1526
00
01
0B
0#
0-
#1531
10
11
1B
1#
b00000000000101111101 +
1-
#1536
00
01
0B
0#
0-
#1541
10
11
1B
1#
b00000000000101111100 +
1-
#1546
00
01
0B
0#
0-
#1551
10
11
1B
1#
b00000000000101111011 +
1-
#1556
00
01
0B
0#
0-
#1561
10
11
1B
1#
b00000000000101111010 +
1-
#1566
00
01
0B
0#
0-
#1571
10
11
1B
1#
b00000000000101111001 +
1-
#1576
00
01
0B
0#
0-
#1581
10
11
1B
1#
b00000000000101111000 +
1-
#1586
00
01
0B
0#
0-
#1591
10
11
1B
1#
b00000000000101110111 +
1-
#1596
00
01
0B
0#
0-
#1601
10
11
1B
1#
b00000000000101110110 +
1-
#1606
00
01
0B
0#
0-
#1611
10
11
1B
1#
b00000000000101110101 +
1-
#1616
00
01
0B
0#
0-
#1621
10
11
1B
1#
b00000000000101110100 +
1-
#1626
00
01
0B
0#
0-
#1631
10
11
1B
1#
b00000000000101110011 +
1-
#1636
00
01
0B
0#
0-
#1641
10
11
1B
1#
b00000000000101110010 +
1-
#1646
00
01
0B
0#
0-
#1651
10
11
1B
1#
b00000000000101110001 +
1-
#1656
00
01
0B
0#
0-
#1661
10
11
1B
1#
b00000000000101110000 +
1-
#1666
00
01
0B
0#
0-
#1671
10
11
1B
1#
b00000000000101101111 +
1-
#1676
00
01
0B
0#
0-
#1681
10
11
1B
1#
b00000000000101101110 +
1-
#1686
00
01
0B
0#
0-
#1691
10
11
1B
1#
b00000000000101101101 +
1-
#1696
00
01
0B
0#
0-
#1701
10
11
1B
1#
b00000000000101101100 +
1-
#1706
00
01
0B
0#
0-
#1711
10
11
1B
1#
b00000000000101101011 +
1-
#1716
00
01
0B
0#
0-
#1721
10
11
1B
1#
b00000000000101101010 +
1-
#1726
00
01
0B
0#
0-
#1731
10
11
1B
1#
b00000000000101101001 +
1-
#1736
00
01
0B
0#
0-
#1741
10
11
1B
1#
b00000000000101101000 +
1-
#1746
00
01
0B
0#
0-
#1751
10
11
1B
1#
b00000000000101100111 +
1-
#1756
00
01
0B
0#
0-
#1761
10
11
1B
1#
b00000000000101100110 +
1-
#1766
00
01
0B
0#
0-
#1771
10
11
1B
1#
b00000000000101100101 +
1-
#1776
00
01
0B
0#
0-
#1781
10
11
1B
1#
b00000000000101100100 +
1-
#1786
00
01
0B
0#
0-
#1791
10
11
1B
1#
b00000000000101100011 +
1-
#1796
00
01
0B
0#
0-
#1801
10
11
1B
1#
b00000000000101100010 +
1-
#1806
00
01
0B
0#
0-
#1811
10
11
1B
1#
b00000000000101100001 +
1-
#1816
00
01
0B
0#
0-
#1821
10
11
1B
1#
b00000000000101100000 +
1-
#1826
00
01
0B
0#
0-
#1831
10
11
1B
1#
b00000000000101011111 +
1-
#1836
00
01
0B
0#
0-
#1841
10
11
1B
1#
b00000000000101011110 +
1-
#1846
00
01
0B
0#
0-
#1851
10
11
1B
1#
b00000000000101011101 +
1-
#1856
00
01
0B
0#
0-
#1861
10
11
1B
1#
b00000000000101011100 +
1-
#1866
00
01
0B
0#
0-
#1871
10
11
1B
1#
b00000000000101011011 +
1-
#1876
00
01
0B
0#
0-
#1881
10
11
1B
1#
b00000000000101011010 +
1-
#1886
00
01
0B
0#
0-
#1891
10
11
1B
1#
b00000000000101011001 +
1-
#1896
00
01
0B
0#
0-
#1901
10
11
1B
1#
b00000000000101011000 +
1-
#1906
00
01
0B
0#
0-
#1911
10
11
1B
1#
b00000000000101010111 +
1-
#1916
00
01
0B
0#
0-
#1921
10
11
1B
1#
b00000000000101010110 +
1-
#1926
00
01
0B
0#
0-
#1931
10
11
1B
1#
b00000000000101010101 +
1-
#1936
00
01
0B
0#
0-
#1941
10
11
1B
1#
b00000000000101010100 +
1-
#1946
00
01
0B
0#
0-
#1951
10
11
1B
1#
b00000000000101010011 +
1-
#1956
00
01
0B
0#
0-
#1961
10
11
1B
1#
b00000000000101010010 +
1-
#1966
00
01
0B
0#
0-
#1971
10
11
1B
1#
b00000000000101010001 +
1-
#1976
00
01
0B
0#
0-
#1981
10
11
1B
1#
b00000000000101010000 +
1-
#1986
00
01
0B
0#
0-
#1991
10
11
1B
1#
b00000000000101001111 +
1-
#1996
00
01
0B
0#
0-
#2001
10
11
1B
1#
b00000000000101001110 +
1-
#2006
00
01
0B
0#
0,
0-
0.
#2011
10
0!
11
1B
1#
b00000000000101001101 +
1-
#2016
00
01
0B
0#
0-
#2021
10
11
1B
1#
b00000000000101001100 +
1-
0N
#2026
00
01
0B
0#
0-
#2031
10
11
1B
1#
b1000 (
b00000000000101001011 +
b00000000001010001010 ;
1-
#2036
00
01
0B
0#
0-
#2041
10
11
1B
1#
b00000000000101001010 +
b00000000001010001001 ;
1-
#2046
00
01
0B
0#
0-
#2051
10
11
1B
1#
b00000000000101001001 +
b00000000001010001000 ;
1-
#2056
00
01
0B
0#
0-
#2061
10
11
1B
1#
b00000000000101001000 +
b00000000001010000111 ;
1-
#2066
00
01
0B
0#
0-
#2071
10
11
1B
1#
b00000000000101000111 +
b00000000001010000110 ;
1-
#2076
00
01
0B
0#
0-
#2081
10
11
1B
1#
b00000000000101000110 +
b00000000001010000101 ;
1-
#2086
00
01
0B
0#
0-
#2091
10
11
1B
1#
b00000000000101000101 +
b00000000001010000100 ;
1-
#2096
00
01
0B
0#
0-
#2101
10
11
1B
1#
b00000000000101000100 +
b00000000001010000011 ;
1-
#2106
00
01
0B
0#
0-
#2111
10
11
1B
1#
b00000000000101000011 +
b00000000001010000010 ;
1-
#2116
00
01
0B
0#
0-
#2121
10
11
1B
1#
b00000000000101000010 +
b00000000001010000001 ;
1-
#2126
00
01
0B
0#
0-
#2131
10
11
1B
1#
b00000000000101000001 +
b00000000001010000000 ;
1-
#2136
00
01
0B
0#
0-
#2141
10
11
1B
1#
b00000000000101000000 +
b00000000001001111111 ;
1-
#2146
00
01
0B
0#
0-
#2151
10
11
1B
1#
b00000000000100111111 +
b00000000001001111110 ;
1-
#2156
00
01
0B
0#
0-
#2161
10
11
1B
1#
b00000000000100111110 +
b00000000001001111101 ;
1-
#2166
00
01
0B
0#
0-
#2171
10
11
1B
1#
b00000000000100111101 +
b00000000001001111100 ;
1-
#2176
00
01
0B
0#
0-
#2181
10
11
1B
1#
b00000000000100111100 +
b00000000001001111011 ;
1-
#2186
00
01
0B
0#
0-
#2191
10
11
1B
1#
b00000000000100111011 +
b00000000001001111010 ;
1-
#2196
00
01
0B
0#
0-
#2201
10
11
1B
1#
b00000000000100111010 +
b00000000001001111001 ;
1-
#2206
00
01
0B
0#
0-
#2211
10
11
1B
1#
b00000000000100111001 +
b00000000001001111000 ;
1-
#2216
00
01
0B
0#
0-
#2221
10
11
1B
1#
b00000000000100111000 +
b00000000001001110111 ;
1-
#2226
00
01
0B
0#
0-
#2231
10
11
1B
1#
b00000000000100110111 +
b00000000001001110110 ;
1-
#2236
00
01
0B
0#
0-
#2241
10
11
1B
1#
b00000000000100110110 +
b00000000001001110101 ;
1-
#2246
00
01
0B
0#
0-
#2251
10
11
1B
1#
b00000000000100110101 +
b00000000001001110100 ;
1-
#2256
00
01
0B
0#
0-
#2261
10
11
1B
1#
b00000000000100110100 +
b00000000001001110011 ;
1-
#2266
00
01
0B
0#
0-
#2271
10
11
1B
1#
b00000000000100110011 +
b00000000001001110010 ;
1-
#2276
00
01
0B
0#
0-
#2281
10
11
1B
1#
b00000000000100110010 +
b00000000001001110001 ;
1-
#2286
00
01
0B
0#
0-
#2291
10
11
1B
1#
b00000000000100110001 +
b00000000001001110000 ;
1-
#2296
00
01
0B
0#
0-
#2301
10
11
1B
1#
b00000000000100110000 +
b00000000001001101111 ;
1-
#2306
00
01
0B
0#
0-
#2311
10
11
1B
1#
b00000000000100101111 +
b00000000001001101110 ;
1-
#2316
00
01
0B
0#
0-
#2321
10
11
1B
1#
b00000000000100101110 +
b00000000001001101101 ;
1-
#2326
00
01
0B
0#
0-
#2331
10
11
1B
1#
b00000000000100101101 +
b00000000001001101100 ;
1-
#2336
00
01
0B
0#
0-
#2341
10
11
1B
1#
b00000000000100101100 +
b00000000001001101011 ;
1-
#2346
00
01
0B
0#
0-
#2351
10
11
1B
1#
b00000000000100101011 +
b00000000001001101010 ;
1-
#2356
00
01
0B
0#
0-
#2361
10
11
1B
1#
b00000000000100101010 +
b00000000001001101001 ;
1-
#2366
00
01
0B
0#
0-
#2371
10
11
1B
1#
b00000000000100101001 +
b00000000001001101000 ;
1-
#2376
00
01
0B
0#
0-
#2381
10
11
1B
1#
b00000000000100101000 +
b00000000001001100111 ;
1-
#2386
00
01
0B
0#
0-
#2391
10
11
1B
1#
b00000000000100100111 +
b00000000001001100110 ;
1-
#2396
00
01
0B
0#
0-
#2401
10
11
1B
1#
b00000000000100100110 +
b00000000001001100101 ;
1-
#2406
00
01
0B
0#
0-
#2411
10
11
1B
1#
b00000000000100100101 +
b00000000001001100100 ;
1-
#2416
00
01
0B
0#
0-
#2421
10
11
1B
1#
b00000000000100100100 +
b00000000001001100011 ;
1-
#2426
00
01
0B
0#
0-
#2431
10
11
1B
1#
b00000000000100100011 +
b00000000001001100010 ;
1-
#2436
00
01
0B
0#
0-
#2441
10
11
1B
1#
b00000000000100100010 +
b00000000001001100001 ;
1-
#2446
00
01
0B
0#
0-
#2451
10
11
1B
1#
b00000000000100100001 +
b00000000001001100000 ;
1-
#2456
00
01
0B
0#
0-
#2461
10
11
1B
1#
b00000000000100100000 +
b00000000001001011111 ;
1-
#2466
00
01
0B
0#
0-
#2471
10
11
1B
1#
b00000000000100011111 +
b00000000001001011110 ;
1-
#2476
00
01
0B
0#
0-
#2481
10
11
1B
1#
b00000000000100011110 +
b00000000001001011101 ;
1-
#2486
00
01
0B
0#
0-
#2491
10
11
1B
1#
b00000000000100011101 +
b00000000001001011100 ;
1-
#2496
00
01
0B
0#
0-
#2501
10
11
1B
1#
b00000000000100011100 +
b00000000001001011011 ;
1-
#2506
00
01
0B
0#
0-
#2511
10
11
1B
1#
b00000000000100011011 +
b00000000001001011010 ;
1-
#2516
00
01
0B
0#
0-
#2521
10
11
1B
1#
b00000000000100011010 +
b00000000001001011001 ;
1-
#2526
00
01
0B
0#
0-
#2531
10
11
1B
1#
b00000000000100011001 +
b00000000001001011000 ;
1-
#2536
00
01
0B
0#
0-
#2541
10
11
1B
1#
b00000000000100011000 +
b00000000001001010111 ;
1-
#2546
00
01
0B
0#
0-
#2551
10
11
1B
1#
b00000000000100010111 +
b00000000001001010110 ;
1-
#2556
00
01
0B
0#
0-
#2561
10
11
1B
1#
b00000000000100010110 +
b00000000001001010101 ;
1-
#2566
00
01
0B
0#
0-
#2571
10
11
1B
1#
b00000000000100010101 +
b00000000001001010100 ;
1-
#2576
00
01
0B
0#
0-
#2581
10
11
1B
1#
b00000000000100010100 +
b00000000001001010011 ;
1-
#2586
00
01
0B
0#
0-
#2591
10
11
1B
1#
b00000000000100010011 +
b00000000001001010010 ;
1-
#2596
00
01
0B
0#
0-
#2601
10
11
1B
1#
b00000000000100010010 +
b00000000001001010001 ;
1-
#2606
00
01
0B
0#
0-
#2611
10
11
1B
1#
b00000000000100010001 +
b00000000001001010000 ;
1-
#2616
00
01
0B
0#
0-
#2621
10
11
1B
1#
b00000000000100010000 +
b00000000001001001111 ;
1-
#2626
00
01
0B
0#
0-
#2631
10
11
1B
1#
b00000000000100001111 +
b00000000001001001110 ;
1-
#2636
00
01
0B
0#
0-
#2641
10
11
1B
1#
b00000000000100001110 +
b00000000001001001101 ;
1-
#2646
00
01
0B
0#
0-
#2651
10
11
1B
1#
b00000000000100001101 +
b00000000001001001100 ;
1-
#2656
00
01
0B
0#
0-
#2661
10
11
1B
1#
b00000000000100001100 +
b00000000001001001011 ;
1-
#2666
00
01
0B
0#
0-
#2671
10
11
1B
1#
b00000000000100001011 +
b00000000001001001010 ;
1-
#2676
00
01
0B
0#
0-
#2681
10
11
1B
1#
b00000000000100001010 +
b00000000001001001001 ;
1-
#2686
00
01
0B
0#
0-
#2691
10
11
1B
1#
b00000000000100001001 +
b00000000001001001000 ;
1-
#2696
00
01
0B
0#
0-
#2701
10
11
1B
1#
b00000000000100001000 +
b00000000001001000111 ;
1-
#2706
00
01
0B
0#
0-
#2711
10
11
1B
1#
b00000000000100000111 +
b00000000001001000110 ;
1-
#2716
00
01
0B
0#
0-
#2721
10
11
1B
1#
b00000000000100000110 +
b00000000001001000101 ;
1-
#2726
00
01
0B
0#
0-
#2731
10
11
1B
1#
b00000000000100000101 +
b00000000001001000100 ;
1-
#2736
00
01
0B
0#
0-
#2741
10
11
1B
1#
b00000000000100000100 +
b00000000001001000011 ;
1-
#2746
00
01
0B
0#
0-
#2751
10
11
1B
1#
b00000000000100000011 +
b00000000001001000010 ;
1-
#2756
00
01
0B
0#
0-
#2761
10
11
1B
1#
b00000000000100000010 +
b00000000001001000001 ;
1-
#2766
00
01
0B
0#
0-
#2771
10
11
1B
1#
b00000000000100000001 +
b00000000001001000000 ;
1-
#2776
00
01
0B
0#
0-
#2781
10
11
1B
1#
b00000000000100000000 +
b00000000001000111111 ;
1-
#2786
00
01
0B
0#
0-
#2791
10
11
1B
1#
b00000000000011111111 +
b00000000001000111110 ;
1-
#2796
00
01
0B
0#
0-
#2801
10
11
1B
1#
b00000000000011111110 +
b00000000001000111101 ;
1-
#2806
00
01
0B
0#
0-
#2811
10
11
1B
1#
b00000000000011111101 +
b00000000001000111100 ;
1-
#2816
00
01
0B
0#
0-
#2821
10
11
1B
1#
b00000000000011111100 +
b00000000001000111011 ;
1-
#2826
00
01
0B
0#
0-
#2831
10
11
1B
1#
b00000000000011111011 +
b00000000001000111010 ;
1-
#2836
00
01
0B
0#
0-
#2841
10
11
1B
1#
b00000000000011111010 +
b00000000001000111001 ;
1-
#2846
00
01
0B
0#
0-
#2851
10
11
1B
1#
b00000000000011111001 +
b00000000001000111000 ;
1-
#2856
00
01
0B
0#
0-
#2861
10
11
1B
1#
b00000000000011111000 +
b00000000001000110111 ;
1-
#2866
00
01
0B
0#
0-
#2871
10
11
1B
1#
b00000000000011110111 +
b00000000001000110110 ;
1-
#2876
00
01
0B
0#
0-
#2881
10
11
1B
1#
b00000000000011110110 +
b00000000001000110101 ;
1-
#2886
00
01
0B
0#
0-
#2891
10
11
1B
1#
b00000000000011110101 +
b00000000001000110100 ;
1-
#2896
00
01
0B
0#
0-
#2901
10
11
1B
1#
b00000000000011110100 +
b00000000001000110011 ;
1-
#2906
00
01
0B
0#
0-
#2911
10
11
1B
1#
b00000000000011110011 +
b00000000001000110010 ;
1-
#2916
00
01
0B
0#
0-
#2921
10
11
1B
1#
b00000000000011110010 +
b00000000001000110001 ;
1-
#2926
00
01
0B
0#
0-
#2931
10
11
1B
1#
b00000000000011110001 +
b00000000001000110000 ;
1-
#2936
00
01
0B
0#
0-
#2941
10
11
1B
1#
b00000000000011110000 +
b00000000001000101111 ;
1-
#2946
00
01
0B
0#
0-
#2951
10
11
1B
1#
b00000000000011101111 +
b00000000001000101110 ;
1-
#2956
00
01
0B
0#
0-
#2961
10
11
1B
1#
b00000000000011101110 +
b00000000001000101101 ;
1-
#2966
00
01
0B
0#
0-
#2971
10
11
1B
1#
b00000000000011101101 +
b00000000001000101100 ;
1-
#2976
00
01
0B
0#
0-
#2981
10
11
1B
1#
b00000000000011101100 +
b00000000001000101011 ;
1-
#2986
00
01
0B
0#
0-
#2991
10
11
1B
1#
b00000000000011101011 +
b00000000001000101010 ;
1-
#2996
00
01
0B
0#
0-
#3001
10
11
1B
1#
b00000000000011101010 +
b00000000001000101001 ;
1-
#3006
00
01
0B
0#
0-
#3011
10
11
1B
1#
b00000000000011101001 +
b00000000001000101000 ;
1-
#3016
00
01
0B
0#
0-
#3021
10
11
1B
1#
b00000000000011101000 +
b00000000001000100111 ;
1-
#3026
00
01
0B
0#
0-
#3031
10
11
1B
1#
b00000000000011100111 +
b00000000001000100110 ;
1-
#3036
00
01
0B
0#
0-
#3041
10
11
1B
1#
b00000000000011100110 +
b00000000001000100101 ;
1-
#3046
00
01
0B
0#
0-
